\relax 
\catcode `:\active 
\catcode `;\active 
\catcode `!\active 
\catcode `?\active 
\select@language{english}
\@writefile{toc}{\select@language{english}}
\@writefile{lof}{\select@language{english}}
\@writefile{lot}{\select@language{english}}
\newlabel{FirstPage}{{}{1}{}{}{}}
\citation{beinert_iron-sulfur_1997}
\citation{neese_critical_2006}
\citation{siegbahn_comparison_1980,roos_complete_1980,siegbahn_complete_1981}
\citation{olsen_determinant_1988,malmqvist_restricted_1990}
\citation{ma_generalized_2011}
\citation{li_manni_splitgas_2013}
\citation{white_density_1992,white_density-matrix_1993,white_ab_1999,wouters_chemps2:_2014,sharma_spin-adapted_2012,zgid_spin_2008,moritz_convergence_2005,legeza_optimizing_2003,kurashige_high-performance_2009,olivares-amaya_ab-initio_2015}
\citation{booth_fermion_2009,cleland_taming_2012,booth_linear-scaling_2014,booth_towards_2013,petruzielo_semistochastic_2012}
\citation{andersson_second-order_1990,andersson_secondorder_1992}
\citation{angeli_introduction_2001,angeli_n-electron_2002}
\citation{werner_efficient_1988}
\citation{sharma_multireference_2015,sharma_quasi-degenerate_2016}
\citation{ma_second-order_2016}
\newlabel{sec:Intro}{{I}{2}{}{}{}}
\@writefile{toc}{\contentsline {section}{\numberline {I}Introduction}{2}{}}
\citation{gull_continuous-time_2011}
\citation{willow_stochastic_2012,willow_convergence_2013,willow_stochastic_2013}
\citation{thom_stochastic_2007}
\citation{helhaker_2014}
\citation{matos_casscfcci_1987,andersson_second-order_1990}
\citation{dyall_choice_1995}
\citation{angeli_introduction_2001,angeli_n-electron_2002}
\citation{fink_two_2006,fink_multi-reference_2009}
\citation{sharma_multireference_2015,sharma_quasi-degenerate_2016}
\newlabel{sec:Theory}{{II}{4}{}{}{}}
\@writefile{toc}{\contentsline {section}{\numberline {II}Theory}{4}{}}
\@writefile{toc}{\contentsline {subsection}{\numberline {A}MRLCC Perturbation theory}{4}{}}
\citation{sharma_multireference_2015}
\newlabel{eq:H@ndQ}{{5}{5}{}{}{}}
\newlabel{eq:HFink}{{6}{5}{}{}{}}
\newlabel{eq:bthorderwf}{{7}{5}{}{}{}}
\@writefile{toc}{\contentsline {subsection}{\numberline {B}Elements of FCIQMC}{6}{}}
\newlabel{eq:expansionWF}{{10}{6}{}{}{}}
\newlabel{eq:imtimeSE}{{11}{6}{}{}{}}
\newlabel{eq:projector}{{13}{6}{}{}{}}
\newlabel{eq:pspawn}{{14}{7}{}{}{}}
\newlabel{eq:ps1equ}{{15}{7}{}{}{}}
\citation{overy_unbiased_2014}
\citation{cleland_communications:_2010,cleland_taming_2012}
\citation{blunt_semi-stochastic_2015}
\newlabel{eq:imtimeSEH0}{{16}{8}{}{}{}}
\newlabel{eq:pismDestoch}{{17}{8}{}{}{}}
\newlabel{eq:psi1diffeq}{{18}{8}{}{}{}}
\newlabel{sec:Implementation}{{III}{8}{}{}{}}
\@writefile{toc}{\contentsline {section}{\numberline {III}Implementation}{8}{}}
\@writefile{lof}{\contentsline {figure}{\numberline {1}{\ignorespaces Schematized description of an iteration update of the two replicas. On the left the 0 order wave function, sampled in replica 0 is updated by applying the $\left (\mathds  {1}-\Delta \tau \left (\mathaccent "705E\relax {H_{0}}-S\mathds  {1}\right )\right )$ operator. On the right the first-order perturbation, in replica 1, is updated by applying the $\left (\mathds  {1}-\Delta \tau \left (\mathaccent "705E\relax {H_{0}}-E_{0}\mathds  {1}\right )\right )$ operator to $\Ket {\Psi _{1}}$ and adding walkers spawned by applying $\mathaccent "705E\relax {V}$ onto $\Ket {\Psi _{0}}$. }}{9}{}}
\newlabel{fig1:scheme}{{1}{9}{}{}{}}
\citation{jr_gaussian_1989}
\@writefile{lof}{\contentsline {figure}{\numberline {2}{\ignorespaces Number of walkers in replica 0 (black), and in replica 1 with an initiator approximation of 3 (green), 1 (red) and no initiator approximation (blue) for the $C_{2}$ molecule in the cc-pVQZ basis set. }}{11}{}}
\newlabel{fig1:swalknum}{{2}{11}{}{}{}}
\citation{overy_unbiased_2014}
\citation{overy_unbiased_2014}
\newlabel{eq:E2}{{21}{12}{}{}{}}
\citation{angeli_introduction_2001,angeli_n-electron_2002}
\@writefile{lof}{\contentsline {figure}{\numberline {3}{\ignorespaces Comparison of the E2 energy with respect to the number of walkers. The black curve is obtained by setting the initiator cutoff to different values, respectively 3,1 and no initiator cutoff. The green curve is obtained by setting the initiator cutoff to 1 and controlling the number of walkers on $\Ket {\Psi _{1}}$ by using the $\alpha $ controlling parameter. For comparison purpose, the value obtained using MPS-LCC is in red.}}{13}{}}
\newlabel{fig1:compinit-alpha}{{3}{13}{}{}{}}
\newlabel{eq:H1=00003DSum_H}{{22}{13}{}{}{}}
\citation{werner_molpro:_2012}
\citation{sharma_spin-adapted_2012}
\citation{matos_casscfcci_1987,roos_towards_1992}
\citation{Sharma2016b}
\newlabel{sec:Results}{{IV}{14}{}{}{}}
\@writefile{toc}{\contentsline {section}{\numberline {IV}Results}{14}{}}
\citation{doering_lowenergy_1969}
\@writefile{lof}{\contentsline {figure}{\numberline {4}{\ignorespaces Comparison of the number of walkers that is necessary to use on replica 1 to reach a value within $1\ mE_{H}$ for $E_{2}$ with respect to the energy computed by MPS-LCC used as reference. In all case the CAS space is (8,8), the three different basis set used are cc-pVDZ with 20 inactive orbitals, cc-pVTZ with 52 inactive orbitals and cc-pVQZ with 102 inactive orbitals. The dotted line is here for eyes guidance.}}{15}{}}
\newlabel{fig1:enerc2basus}{{4}{15}{}{}{}}
\citation{miller_organic_1994}
\citation{wright_electron_1983}
\citation{wenthold_photoelectron_1997}
\citation{reta_maneru_tripletsinglet_2014}
\citation{hrovat_effects_1998}
\@writefile{lot}{\contentsline {table}{\numberline {I}{\ignorespaces $E_{2}$ energies in $E_{H}$ for the 8 different classes of excitation for \leavevmode {\color  {red}the benzene molecule singlet (left) and triplet (right)} predicted by LCCQMC. Next to each value is the number of walkers necessary to get this number with the method described in this article. \leavevmode {\color  {red}The standard error on the $E_{2}$ energies is also given in $E_{H}$.} The $\left (-1,1,0\right )$ class has no overlap with $\Ket {\Psi _{0}}$ because the excitation are forbidden by symmetry. }}{16}{}}
\newlabel{tab:-energies-benz}{{I}{16}{}{}{}}
\@writefile{lot}{\contentsline {table}{\numberline {II}{\ignorespaces $E_{2}$ energies in $E_{H}$ for the 8 different classes of excitations for the singlet (left) and triplet (right) of the m-xylylene diradical predicted by LCCQMC. Next to each value is the number of walkers necessary to get this number with the method described in this article. \leavevmode {\color  {red}The standard error on the $E_{2}$ energies is also given in $E_{H}$.} It has not been possible to make the classes $\left (-2,0,2\right )$ and $\left (-1,-1,2\right )$ converge with LCCQMC, the $E_{2}$ labeled ({*}) are obtained with ICMPS using internal contraction }}{18}{}}
\newlabel{tab:-energies-xyl}{{II}{18}{}{}{}}
\newlabel{sec:Conclusions}{{V}{18}{}{}{}}
\@writefile{toc}{\contentsline {section}{\numberline {V}Conclusions}{18}{}}
\citation{li_manni_combining_2016}
\bibdata{biblioLCC}
\bibcite{beinert_iron-sulfur_1997}{{1}{1997}{{Beinert et~al.}}{{Beinert, Holm, and M\~A\IeC {\OE }nck}}}
\bibcite{neese_critical_2006}{{2}{2006}{{Neese}}{{}}}
\bibcite{siegbahn_comparison_1980}{{3}{1980}{{Siegbahn et~al.}}{{Siegbahn, Heiberg, Roos, and Levy}}}
\@writefile{toc}{\contentsline {section}{\numberline {}Acknowledgments}{19}{}}
\select@language{french}
\@writefile{toc}{\select@language{french}}
\@writefile{lof}{\select@language{french}}
\@writefile{lot}{\select@language{french}}
\@writefile{toc}{\contentsline {section}{\numberline {}R\'ef\'erences}{19}{}}
\bibcite{roos_complete_1980}{{4}{1980}{{Roos et~al.}}{{Roos, Taylor, and Siegbahn}}}
\bibcite{siegbahn_complete_1981}{{5}{1981}{{Siegbahn et~al.}}{{Siegbahn, Alml\"of, Heiberg, and Roos}}}
\bibcite{olsen_determinant_1988}{{6}{1988}{{Olsen et~al.}}{{Olsen, Roos, J{\o }rgensen, and Jensen}}}
\bibcite{malmqvist_restricted_1990}{{7}{1990}{{Malmqvist et~al.}}{{Malmqvist, Rendell, and Roos}}}
\bibcite{ma_generalized_2011}{{8}{2011}{{Ma et~al.}}{{Ma, Manni, and Gagliardi}}}
\bibcite{li_manni_splitgas_2013}{{9}{2013}{{Li~Manni et~al.}}{{Li~Manni, Ma, Aquilante, Olsen, and Gagliardi}}}
\bibcite{white_density_1992}{{10}{1992}{{White}}{{}}}
\bibcite{white_density-matrix_1993}{{11}{1993}{{White}}{{}}}
\bibcite{white_ab_1999}{{12}{1999}{{White and Martin}}{{}}}
\bibcite{wouters_chemps2:_2014}{{13}{2014}{{Wouters et~al.}}{{Wouters, Poelmans, Ayers, and Van~Neck}}}
\bibcite{sharma_spin-adapted_2012}{{14}{2012}{{Sharma and Chan}}{{}}}
\bibcite{zgid_spin_2008}{{15}{2008}{{Zgid and Nooijen}}{{}}}
\bibcite{moritz_convergence_2005}{{16}{2005}{{Moritz et~al.}}{{Moritz, Hess, and Reiher}}}
\bibcite{legeza_optimizing_2003}{{17}{2003}{{Legeza and S\'olyom}}{{}}}
\bibcite{kurashige_high-performance_2009}{{18}{2009}{{Kurashige and Yanai}}{{}}}
\bibcite{olivares-amaya_ab-initio_2015}{{19}{2015}{{Olivares-Amaya et~al.}}{{Olivares-Amaya, Hu, Nakatani, Sharma, Yang, and Chan}}}
\bibcite{booth_fermion_2009}{{20}{2009}{{Booth et~al.}}{{Booth, Thom, and Alavi}}}
\bibcite{cleland_taming_2012}{{21}{2012}{{Cleland et~al.}}{{Cleland, Booth, Overy, and Alavi}}}
\bibcite{booth_linear-scaling_2014}{{22}{2014}{{Booth et~al.}}{{Booth, Smart, and Alavi}}}
\bibcite{booth_towards_2013}{{23}{2013}{{boo}}{{}}}
\bibcite{petruzielo_semistochastic_2012}{{24}{2012}{{Petruzielo et~al.}}{{Petruzielo, Holmes, Changlani, Nightingale, and Umrigar}}}
\bibcite{andersson_second-order_1990}{{25}{1990}{{Andersson et~al.}}{{Andersson, Malmqvist, Roos, Sadlej, and Wolinski}}}
\bibcite{andersson_secondorder_1992}{{26}{1992}{{Andersson et~al.}}{{Andersson, Malmqvist, and Roos}}}
\bibcite{angeli_introduction_2001}{{27}{2001}{{Angeli et~al.}}{{Angeli, Cimiraglia, Evangelisti, Leininger, and Malrieu}}}
\bibcite{angeli_n-electron_2002}{{28}{2002}{{Angeli et~al.}}{{Angeli, Cimiraglia, and Malrieu}}}
\bibcite{werner_efficient_1988}{{29}{1988}{{Werner and Knowles}}{{}}}
\bibcite{sharma_multireference_2015}{{30}{2015}{{Sharma and Alavi}}{{}}}
\bibcite{sharma_quasi-degenerate_2016}{{31}{2016{}}{{Sharma et~al.}}{{Sharma, Jeanmairet, and Alavi}}}
\bibcite{ma_second-order_2016}{{32}{2016}{{Ma et~al.}}{{Ma, Li~Manni, Olsen, and Gagliardi}}}
\bibcite{gull_continuous-time_2011}{{33}{2011}{{Gull et~al.}}{{Gull, Millis, Lichtenstein, Rubtsov, Troyer, and Werner}}}
\bibcite{willow_stochastic_2012}{{34}{2012}{{Willow et~al.}}{{Willow, Kim, and Hirata}}}
\bibcite{willow_convergence_2013}{{35}{2013{}}{{Willow et~al.}}{{Willow, Hermes, Kim, and Hirata}}}
\bibcite{willow_stochastic_2013}{{36}{2013{}}{{Willow et~al.}}{{Willow, Kim, and Hirata}}}
\bibcite{thom_stochastic_2007}{{37}{2007}{{Thom and Alavi}}{{}}}
\bibcite{helhaker_2014}{{38}{2000}{{Helgaker et~al.}}{{Helgaker, J{\o }rgensen, and Olsen}}}
\bibcite{matos_casscfcci_1987}{{39}{1987}{{Matos et~al.}}{{Matos, Roos, and Malmqvist}}}
\bibcite{dyall_choice_1995}{{40}{1995}{{Dyall}}{{}}}
\bibcite{fink_two_2006}{{41}{2006}{{Fink}}{{}}}
\bibcite{fink_multi-reference_2009}{{42}{2009}{{Fink}}{{}}}
\bibcite{overy_unbiased_2014}{{43}{2014}{{Overy et~al.}}{{Overy, Booth, Blunt, Shepherd, Cleland, and Alavi}}}
\bibcite{cleland_communications:_2010}{{44}{2010}{{Cleland et~al.}}{{Cleland, Booth, and Alavi}}}
\bibcite{blunt_semi-stochastic_2015}{{45}{2015}{{Blunt et~al.}}{{Blunt, Smart, Kersten, Spencer, Booth, and Alavi}}}
\bibcite{jr_gaussian_1989}{{46}{1989}{{{Dunning, Jr}}}{{}}}
\bibcite{werner_molpro:_2012}{{47}{2012}{{Werner et~al.}}{{Werner, Knowles, Knizia, Manby, and Sch\~A\IeC {\OE }tz}}}
\bibcite{roos_towards_1992}{{48}{1992}{{Roos et~al.}}{{Roos, Andersson, and F\"ulscher}}}
\bibcite{Sharma2016b}{{49}{2016{}}{{Sharma et~al.}}{{Sharma, Knizia, Guo, and Alavi}}}
\bibcite{doering_lowenergy_1969}{{50}{1969}{{Doering}}{{}}}
\bibcite{miller_organic_1994}{{51}{1994}{{Miller and Epstein}}{{}}}
\bibcite{wright_electron_1983}{{52}{1983}{{Wright and Platz}}{{}}}
\bibcite{wenthold_photoelectron_1997}{{53}{1997}{{Wenthold et~al.}}{{Wenthold, Kim, and Lineberger}}}
\bibcite{reta_maneru_tripletsinglet_2014}{{54}{2014}{{Reta Ma\~neru et~al.}}{{Reta Ma\~neru, Pal, Moreira, Datta, and Illas}}}
\bibcite{hrovat_effects_1998}{{55}{1998}{{Hrovat et~al.}}{{Hrovat, Murcko, Lahti, and Borden}}}
\bibcite{li_manni_combining_2016}{{56}{2016}{{Li~Manni et~al.}}{{Li~Manni, Smart, and Alavi}}}
\global \chardef \firstnote@num56\relax 
\bibstyle{apsrev}
\newlabel{LastBibItem}{{56}{23}{}{}{}}
\select@language{english}
\@writefile{toc}{\select@language{english}}
\@writefile{lof}{\select@language{english}}
\@writefile{lot}{\select@language{english}}
\newlabel{LastPage}{{}{23}}
